VerificationOfSPI/VerificationOfSPI.sim/sim_1/behav/xsim/dump.vcd
$date
   Sun Oct 22 12:50:49 2023
$end
$version
  2023.1
$end
$timescale
  1ps
$end
$scope module tb $end
$var reg 32 ! env $end
$scope module vif $end
$var reg 1 " clk $end
$var reg 1 # rst $end
$var reg 1 $ newd $end
$var reg 1 % sclk $end
$var reg 12 & din [11:0] $end
$var reg 12 ' dout [11:0] $end
$var reg 1 ( done $end
$upscope $end
$scope module dut $end
$var wire 1 ) clk $end
$var wire 1 * rst $end
$var wire 1 + newd $end
$var wire 12 , din [11:0] $end
$var wire 12 - dout [11:0] $end
$var wire 1 . done $end
$var wire 1 / sclk $end
$var wire 1 0 cs $end
$var wire 1 1 mosi $end
$scope module m1 $end
$var wire 1 ) clk $end
$var wire 1 + newd $end
$var wire 1 * rst $end
$var wire 12 , din [11:0] $end
$var reg 1 2 sclk $end
$var reg 1 3 cs $end
$var reg 1 4 mosi $end
$var reg 2 5 state $end
$var reg 32 6 countc [31:0] $end
$var reg 32 7 count [31:0] $end
$var reg 12 8 temp [11:0] $end
$upscope $end
$scope module s1 $end
$var wire 1 / sclk $end
$var wire 1 0 cs $end
$var wire 1 1 mosi $end
$var wire 12 - dout [11:0] $end
$var reg 1 9 done $end
$var reg 1 : state $end
$var reg 12 ; temp [11:0] $end
$var reg 32 < count [31:0] $end
$upscope $end
$upscope $end
$upscope $end
$enddefinitions $end
#0
$dumpvars
b100001101100000000000000111000 !
0"
1#
0$
x%
b0 &
b0 '
x(
0)
1*
0+
b0 ,
b0 -
x.
x/
x0
x1
x2
x3
x4
b0 5
b0 6
b0 7
bx 8
x9
0:
b0 ;
b0 <
$end
#10000
1"
0%
1)
0/
02
#20000
0"
0)
#30000
1"
1)
#40000
0"
0)
#50000
1"
1)
#60000
0"
0)
#70000
1"
1)
#80000
0"
0)
#90000
1"
1)
#100000
0"
0)
#110000
1"
1)
#120000
0"
0)
#130000
1"
1)
#140000
0"
0)
#150000
1"
1)
#160000
0"
0)
#170000
1"
1)
#180000
0"
0)
#190000
1"
0#
1)
0*
#200000
0"
0)
#210000
1"
1)
b1 6
#220000
0"
0)
#230000
1"
1)
b10 6
#240000
0"
0)
#250000
1"
1)
b11 6
#260000
0"
0)
#270000
1"
1)
b100 6
#280000
0"
0)
#290000
1"
1$
b1100000100 &
1)
1+
b1100000100 ,
b101 6
#300000
0"
0)
#310000
1"
1)
b110 6
#320000
0"
0)
#330000
1"
1)
b111 6
#340000
0"
0)
#350000
1"
1)
b1000 6
#360000
0"
0)
#370000
1"
1)
b1001 6
#380000
0"
0)
#390000
1"
1)
b1010 6
#400000
0"
0)
#410000
1"
0$
1%
0(
1)
0+
0.
1/
00
12
03
b10 5
b0 6
b1100000100 8
09
#420000
0"
0)
#430000
1"
1)
b1 6
#440000
0"
0)
#450000
1"
1)
b10 6
#460000
0"
0)
#470000
1"
1)
b11 6
#480000
0"
0)
#490000
1"
1)
b100 6
#500000
0"
0)
#510000
1"
1)
b101 6
#520000
0"
0)
#530000
1"
1)
b110 6
#540000
0"
0)
#550000
1"
1)
b111 6
#560000
0"
0)
#570000
1"
1)
b1000 6
#580000
0"
0)
#590000
1"
1)
b1001 6
#600000
0"
0)
#610000
1"
1)
b1010 6
#620000
0"
0)
#630000
1"
0%
1)
0/
02
b0 6
#640000
0"
0)
#650000
1"
1)
b1 6
#660000
0"
0)
#670000
1"
1)
b10 6
#680000
0"
0)
#690000
1"
1)
b11 6
#700000
0"
0)
#710000
1"
1)
b100 6
#720000
0"
0)
#730000
1"
1)
b101 6
#740000
0"
0)
#750000
1"
1)
b110 6
#760000
0"
0)
#770000
1"
1)
b111 6
#780000
0"
0)
#790000
1"
1)
b1000 6
#800000
0"
0)
#810000
1"
1)
b1001 6
#820000
0"
0)
#830000
1"
1)
b1010 6
#840000
0"
0)
#850000
1"
1%
1)
1/
01
12
04
b0 6
b1 7
1:
#860000
0"
0)
#870000
1"
1)
b1 6
#880000
0"
0)
#890000
1"
1)
b10 6
#900000
0"
0)
#910000
1"
1)
b11 6
#920000
0"
0)
#930000
1"
1)
b100 6
#940000
0"
0)
#950000
1"
1)
b101 6
#960000
0"
0)
#970000
1"
1)
b110 6
#980000
0"
0)
#990000
1"
1)
b111 6
#1000000
0"
0)
#1010000
1"
1)
b1000 6
#1020000
0"
0)
#1030000
1"
1)
b1001 6
#1040000
0"
0)
#1050000
1"
1)
b1010 6
#1060000
0"
0)
#1070000
1"
0%
1)
0/
02
b0 6
#1080000
0"
0)
#1090000
1"
1)
b1 6
#1100000
0"
0)
#1110000
1"
1)
b10 6
#1120000
0"
0)
#1130000
1"
1)
b11 6
#1140000
0"
0)
#1150000
1"
1)
b100 6
#1160000
0"
0)
#1170000
1"
1)
b101 6
#1180000
0"
0)
#1190000
1"
1)
b110 6
#1200000
0"
0)
#1210000
1"
1)
b111 6
#1220000
0"
0)
#1230000
1"
1)
b1000 6
#1240000
0"
0)
#1250000
1"
1)
b1001 6
#1260000
0"
0)
#1270000
1"
1)
b1010 6
#1280000
0"
0)
#1290000
1"
1%
1)
1/
12
b0 6
b10 7
b1 <
#1300000
0"
0)
#1310000
1"
1)
b1 6
#1320000
0"
0)
#1330000
1"
1)
b10 6
#1340000
0"
0)
#1350000
1"
1)
b11 6
#1360000
0"
0)
#1370000
1"
1)
b100 6
#1380000
0"
0)
#1390000
1"
1)
b101 6
#1400000
0"
0)
#1410000
1"
1)
b110 6
#1420000
0"
0)
#1430000
1"
1)
b111 6
#1440000
0"
0)
#1450000
1"
1)
b1000 6
#1460000
0"
0)
#1470000
1"
1)
b1001 6
#1480000
0"
0)
#1490000
1"
1)
b1010 6
#1500000
0"
0)
#1510000
1"
0%
1)
0/
02
b0 6
#1520000
0"
0)
#1530000
1"
1)
b1 6
#1540000
0"
0)
#1550000
1"
1)
b10 6
#1560000
0"
0)
#1570000
1"
1)
b11 6
#1580000
0"
0)
#1590000
1"
1)
b100 6
#1600000
0"
0)
#1610000
1"
1)
b101 6
#1620000
0"
0)
#1630000
1"
1)
b110 6
#1640000
0"
0)
#1650000
1"
1)
b111 6
#1660000
0"
0)
#1670000
1"
1)
b1000 6
#1680000
0"
0)
#1690000
1"
1)
b1001 6
#1700000
0"
0)
#1710000
1"
1)
b1010 6
#1720000
0"
0)
#1730000
1"
1%
1)
1/
11
12
14
b0 6
b11 7
b10 <
#1740000
0"
0)
#1750000
1"
1)
b1 6
#1760000
0"
0)
#1770000
1"
1)
b10 6
#1780000
0"
0)
#1790000
1"
1)
b11 6
#1800000
0"
0)
#1810000
1"
1)
b100 6
#1820000
0"
0)
#1830000
1"
1)
b101 6
#1840000
0"
0)
#1850000
1"
1)
b110 6
#1860000
0"
0)
#1870000
1"
1)
b111 6
#1880000
0"
0)
#1890000
1"
1)
b1000 6
#1900000
0"
0)
#1910000
1"
1)
b1001 6
#1920000
0"
0)
#1930000
1"
1)
b1010 6
#1940000
0"
0)
#1950000
1"
0%
1)
0/
02
b0 6
#1960000
0"
0)
#1970000
1"
1)
b1 6
#1980000
0"
0)
#1990000
1"
1)
b10 6
#2000000
0"
0)
#2010000
1"
1)
b11 6
#2020000
0"
0)
#2030000
1"
1)
b100 6
#2040000
0"
0)
#2050000
1"
1)
b101 6
#2060000
0"
0)
#2070000
1"
1)
b110 6
#2080000
0"
0)
#2090000
1"
1)
b111 6
#2100000
0"
0)
#2110000
1"
1)
b1000 6
#2120000
0"
0)
#2130000
1"
1)
b1001 6
#2140000
0"
0)
#2150000
1"
1)
b1010 6
#2160000
0"
0)
#2170000
1"
1%
b100000000000 '
1)
b100000000000 -
1/
01
12
04
b0 6
b100 7
b100000000000 ;
b11 <
#2180000
0"
0)
#2190000
1"
1)
b1 6
#2200000
0"
0)
#2210000
1"
1)
b10 6
#2220000
0"
0)
#2230000
1"
1)
b11 6
#2240000
0"
0)
#2250000
1"
1)
b100 6
#2260000
0"
0)
#2270000
1"
1)
b101 6
#2280000
0"
0)
#2290000
1"
1)
b110 6
#2300000
0"
0)
#2310000
1"
1)
b111 6
#2320000
0"
0)
#2330000
1"
1)
b1000 6
#2340000
0"
0)
#2350000
1"
1)
b1001 6
#2360000
0"
0)
#2370000
1"
1)
b1010 6
#2380000
0"
0)
#2390000
1"
0%
1)
0/
02
b0 6
#2400000
0"
0)
#2410000
1"
1)
b1 6
#2420000
0"
0)
#2430000
1"
1)
b10 6
#2440000
0"
0)
#2450000
1"
1)
b11 6
#2460000
0"
0)
#2470000
1"
1)
b100 6
#2480000
0"
0)
#2490000
1"
1)
b101 6
#2500000
0"
0)
#2510000
1"
1)
b110 6
#2520000
0"
0)
#2530000
1"
1)
b111 6
#2540000
0"
0)
#2550000
1"
1)
b1000 6
#2560000
0"
0)
#2570000
1"
1)
b1001 6
#2580000
0"
0)
#2590000
1"
1)
b1010 6
#2600000
0"
0)
#2610000
1"
1%
b10000000000 '
1)
b10000000000 -
1/
12
b0 6
b101 7
b10000000000 ;
b100 <
#2620000
0"
0)
#2630000
1"
1)
b1 6
#2640000
0"
0)
#2650000
1"
1)
b10 6
#2660000
0"
0)
#2670000
1"
1)
b11 6
#2680000
0"
0)
#2690000
1"
1)
b100 6
#2700000
0"
0)
#2710000
1"
1)
b101 6
#2720000
0"
0)
#2730000
1"
1)
b110 6
#2740000
0"
0)
#2750000
1"
1)
b111 6
#2760000
0"
0)
#2770000
1"
1)
b1000 6
#2780000
0"
0)
#2790000
1"
1)
b1001 6
#2800000
0"
0)
#2810000
1"
1)
b1010 6
#2820000
0"
0)
#2830000
1"
0%
1)
0/
02
b0 6
#2840000
0"
0)
#2850000
1"
1)
b1 6
#2860000
0"
0)
#2870000
1"
1)
b10 6
#2880000
0"
0)
#2890000
1"
1)
b11 6
#2900000
0"
0)
#2910000
1"
1)
b100 6
#2920000
0"
0)
#2930000
1"
1)
b101 6
#2940000
0"
0)
#2950000
1"
1)
b110 6
#2960000
0"
0)
#2970000
1"
1)
b111 6
#2980000
0"
0)
#2990000
1"
1)
b1000 6
#3000000
0"
0)
#3010000
1"
1)
b1001 6
#3020000
0"
0)
#3030000
1"
1)
b1010 6
#3040000
0"
0)
#3050000
1"
1%
b1000000000 '
1)
b1000000000 -
1/
12
b0 6
b110 7
b1000000000 ;
b101 <
#3060000
0"
0)
#3070000
1"
1)
b1 6
#3080000
0"
0)
#3090000
1"
1)
b10 6
#3100000
0"
0)
#3110000
1"
1)
b11 6
#3120000
0"
0)
#3130000
1"
1)
b100 6
#3140000
0"
0)
#3150000
1"
1)
b101 6
#3160000
0"
0)
#3170000
1"
1)
b110 6
#3180000
0"
0)
#3190000
1"
1)
b111 6
#3200000
0"
0)
#3210000
1"
1)
b1000 6
#3220000
0"
0)
#3230000
1"
1)
b1001 6
#3240000
0"
0)
#3250000
1"
1)
b1010 6
#3260000
0"
0)
#3270000
1"
0%
1)
0/
02
b0 6
#3280000
0"
0)
#3290000
1"
1)
b1 6
#3300000
0"
0)
#3310000
1"
1)
b10 6
#3320000
0"
0)
#3330000
1"
1)
b11 6
#3340000
0"
0)
#3350000
1"
1)
b100 6
#3360000
0"
0)
#3370000
1"
1)
b101 6
#3380000
0"
0)
#3390000
1"
1)
b110 6
#3400000
0"
0)
#3410000
1"
1)
b111 6
#3420000
0"
0)
#3430000
1"
1)
b1000 6
#3440000
0"
0)
#3450000
1"
1)
b1001 6
#3460000
0"
0)
#3470000
1"
1)
b1010 6
#3480000
0"
0)
#3490000
1"
1%
b100000000 '
1)
b100000000 -
1/
12
b0 6
b111 7
b100000000 ;
b110 <
#3500000
0"
0)
#3510000
1"
1)
b1 6
#3520000
0"
0)
#3530000
1"
1)
b10 6
#3540000
0"
0)
#3550000
1"
1)
b11 6
#3560000
0"
0)
#3570000
1"
1)
b100 6
#3580000
0"
0)
#3590000
1"
1)
b101 6
#3600000
0"
0)
#3610000
1"
1)
b110 6
#3620000
0"
0)
#3630000
1"
1)
b111 6
#3640000
0"
0)
#3650000
1"
1)
b1000 6
#3660000
0"
0)
#3670000
1"
1)
b1001 6
#3680000
0"
0)
#3690000
1"
1)
b1010 6
#3700000
0"
0)
#3710000
1"
0%
1)
0/
02
b0 6
#3720000
0"
0)
#3730000
1"
1)
b1 6
#3740000
0"
0)
#3750000
1"
1)
b10 6
#3760000
0"
0)
#3770000
1"
1)
b11 6
#3780000
0"
0)
#3790000
1"
1)
b100 6
#3800000
0"
0)
#3810000
1"
1)
b101 6
#3820000
0"
0)
#3830000
1"
1)
b110 6
#3840000
0"
0)
#3850000
1"
1)
b111 6
#3860000
0"
0)
#3870000
1"
1)
b1000 6
#3880000
0"
0)
#3890000
1"
1)
b1001 6
#3900000
0"
0)
#3910000
1"
1)
b1010 6
#3920000
0"
0)
#3930000
1"
1%
b10000000 '
1)
b10000000 -
1/
12
b0 6
b1000 7
b10000000 ;
b111 <
#3940000
0"
0)
#3950000
1"
1)
b1 6
#3960000
0"
0)
#3970000
1"
1)
b10 6
#3980000
0"
0)
#3990000
1"
1)
b11 6
#4000000
0"
0)
#4010000
1"
1)
b100 6
#4020000
0"
0)
#4030000
1"
1)
b101 6
#4040000
0"
0)
#4050000
1"
1)
b110 6
#4060000
0"
0)
#4070000
1"
1)
b111 6
#4080000
0"
0)
#4090000
1"
1)
b1000 6
#4100000
0"
0)
#4110000
1"
1)
b1001 6
#4120000
0"
0)
#4130000
1"
1)
b1010 6
#4140000
0"
0)
#4150000
1"
0%
1)
0/
02
b0 6
#4160000
0"
0)
#4170000
1"
1)
b1 6
#4180000
0"
0)
#4190000
1"
1)
b10 6
#4200000
0"
0)
#4210000
1"
1)
b11 6
#4220000
0"
0)
#4230000
1"
1)
b100 6
#4240000
0"
0)
#4250000
1"
1)
b101 6
#4260000
0"
0)
#4270000
1"
1)
b110 6
#4280000
0"
0)
#4290000
1"
1)
b111 6
#4300000
0"
0)
#4310000
1"
1)
b1000 6
#4320000
0"
0)
#4330000
1"
1)
b1001 6
#4340000
0"
0)
#4350000
1"
1)
b1010 6
#4360000
0"
0)
#4370000
1"
1%
b1000000 '
1)
b1000000 -
1/
11
12
14
b0 6
b1001 7
b1000000 ;
b1000 <
#4380000
0"
0)
#4390000
1"
1)
b1 6
#4400000
0"
0)
#4410000
1"
1)
b10 6
#4420000
0"
0)
#4430000
1"
1)
b11 6
#4440000
0"
0)
#4450000
1"
1)
b100 6
#4460000
0"
0)
#4470000
1"
1)
b101 6
#4480000
0"
0)
#4490000
1"
1)
b110 6
#4500000
0"
0)
#4510000
1"
1)
b111 6
#4520000
0"
0)
#4530000
1"
1)
b1000 6
#4540000
0"
0)
#4550000
1"
1)
b1001 6
#4560000
0"
0)
#4570000
1"
1)
b1010 6
#4580000
0"
0)
#4590000
1"
0%
1)
0/
02
b0 6
#4600000
0"
0)
#4610000
1"
1)
b1 6
#4620000
0"
0)
#4630000
1"
1)
b10 6
#4640000
0"
0)
#4650000
1"
1)
b11 6
#4660000
0"
0)
#4670000
1"
1)
b100 6
#4680000
0"
0)
#4690000
1"
1)
b101 6
#4700000
0"
0)
#4710000
1"
1)
b110 6
#4720000
0"
0)
#4730000
1"
1)
b111 6
#4740000
0"
0)
#4750000
1"
1)
b1000 6
#4760000
0"
0)
#4770000
1"
1)
b1001 6
#4780000
0"
0)
#4790000
1"
1)
b1010 6
#4800000
0"
0)
#4810000
1"
1%
b100000100000 '
1)
b100000100000 -
1/
12
b0 6
b1010 7
b100000100000 ;
b1001 <
#4820000
0"
0)
#4830000
1"
1)
b1 6
#4840000
0"
0)
#4850000
1"
1)
b10 6
#4860000
0"
0)
#4870000
1"
1)
b11 6
#4880000
0"
0)
#4890000
1"
1)
b100 6
#4900000
0"
0)
#4910000
1"
1)
b101 6
#4920000
0"
0)
#4930000
1"
1)
b110 6
#4940000
0"
0)
#4950000
1"
1)
b111 6
#4960000
0"
0)
#4970000
1"
1)
b1000 6
#4980000
0"
0)
#4990000
1"
1)
b1001 6
#5000000
0"
0)
#5010000
1"
1)
b1010 6
#5020000
0"
0)
#5030000
1"
0%
1)
0/
02
b0 6
#5040000
0"
0)
#5050000
1"
1)
b1 6
#5060000
0"
0)
#5070000
1"
1)
b10 6
#5080000
0"
0)
#5090000
1"
1)
b11 6
#5100000
0"
0)
#5110000
1"
1)
b100 6
#5120000
0"
0)
#5130000
1"
1)
b101 6
#5140000
0"
0)
#5150000
1"
1)
b110 6
#5160000
0"
0)
#5170000
1"
1)
b111 6
#5180000
0"
0)
#5190000
1"
1)
b1000 6
#5200000
0"
0)
#5210000
1"
1)
b1001 6
#5220000
0"
0)
#5230000
1"
1)
b1010 6
#5240000
0"
0)
#5250000
1"
1%
b110000010000 '
1)
b110000010000 -
1/
01
12
04
b0 6
b1011 7
b110000010000 ;
b1010 <
#5260000
0"
0)
#5270000
1"
1)
b1 6
#5280000
0"
0)
#5290000
1"
1)
b10 6
#5300000
0"
0)
#5310000
1"
1)
b11 6
#5320000
0"
0)
#5330000
1"
1)
b100 6
#5340000
0"
0)
#5350000
1"
1)
b101 6
#5360000
0"
0)
#5370000
1"
1)
b110 6
#5380000
0"
0)
#5390000
1"
1)
b111 6
#5400000
0"
0)
#5410000
1"
1)
b1000 6
#5420000
0"
0)
#5430000
1"
1)
b1001 6
#5440000
0"
0)
#5450000
1"
1)
b1010 6
#5460000
0"
0)
#5470000
1"
0%
1)
0/
02
b0 6
#5480000
0"
0)
#5490000
1"
1)
b1 6
#5500000
0"
0)
#5510000
1"
1)
b10 6
#5520000
0"
0)
#5530000
1"
1)
b11 6
#5540000
0"
0)
#5550000
1"
1)
b100 6
#5560000
0"
0)
#5570000
1"
1)
b101 6
#5580000
0"
0)
#5590000
1"
1)
b110 6
#5600000
0"
0)
#5610000
1"
1)
b111 6
#5620000
0"
0)
#5630000
1"
1)
b1000 6
#5640000
0"
0)
#5650000
1"
1)
b1001 6
#5660000
0"
0)
#5670000
1"
1)
b1010 6
#5680000
0"
0)
#5690000
1"
1%
b11000001000 '
1)
b11000001000 -
1/
12
b0 6
b1100 7
b11000001000 ;
b1011 <
#5700000
0"
0)
#5710000
1"
1)
b1 6
#5720000
0"
0)
#5730000
1"
1)
b10 6
#5740000
0"
0)
#5750000
1"
1)
b11 6
#5760000
0"
0)
#5770000
1"
1)
b100 6
#5780000
0"
0)
#5790000
1"
1)
b101 6
#5800000
0"
0)
#5810000
1"
1)
b110 6
#5820000
0"
0)
#5830000
1"
1)
b111 6
#5840000
0"
0)
#5850000
1"
1)
b1000 6
#5860000
0"
0)
#5870000
1"
1)
b1001 6
#5880000
0"
0)
#5890000
1"
1)
b1010 6
#5900000
0"
0)
#5910000
1"
0%
1)
0/
02
b0 6
#5920000
0"
0)
#5930000
1"
1)
b1 6
#5940000
0"
0)
#5950000
1"
1)
b10 6
#5960000
0"
0)
#5970000
1"
1)
b11 6
#5980000
0"
0)
#5990000
1"
1)
b100 6
#6000000
0"
0)
#6010000
1"
1)
b101 6
#6020000
0"
0)
#6030000
1"
1)
b110 6
#6040000
0"
0)
#6050000
1"
1)
b111 6
#6060000
0"
0)
#6070000
1"
1)
b1000 6
#6080000
0"
0)
#6090000
1"
1)
b1001 6
#6100000
0"
0)
#6110000
1"
1)
b1010 6
#6120000
0"
0)
#6130000
1"
1%
b1100000100 '
1)
b1100000100 -
1/
10
12
13
b0 5
b0 6
b0 7
b1100000100 ;
b1100 <
#6140000
0"
0)
#6150000
1"
1)
b1 6
#6160000
0"
0)
#6170000
1"
1)
b10 6
#6180000
0"
0)
#6190000
1"
1)
b11 6
#6200000
0"
0)
#6210000
1"
1)
b100 6
#6220000
0"
0)
#6230000
1"
1)
b101 6
#6240000
0"
0)
#6250000
1"
1)
b110 6
#6260000
0"
0)
#6270000
1"
1)
b111 6
#6280000
0"
0)
#6290000
1"
1)
b1000 6
#6300000
0"
0)
#6310000
1"
1)
b1001 6
#6320000
0"
0)
#6330000
1"
1)
b1010 6
#6340000
0"
0)
#6350000
1"
0%
1)
0/
02
b0 6
#6360000
0"
0)
#6370000
1"
1)
b1 6
#6380000
0"
0)
#6390000
1"
1)
b10 6
#6400000
0"
0)
#6410000
1"
1)
b11 6
#6420000
0"
0)
#6430000
1"
1)
b100 6
#6440000
0"
0)
#6450000
1"
1)
b101 6
#6460000
0"
0)
#6470000
1"
1)
b110 6
#6480000
0"
0)
#6490000
1"
1)
b111 6
#6500000
0"
0)
#6510000
1"
1)
b1000 6
#6520000
0"
0)
#6530000
1"
1)
b1001 6
#6540000
0"
0)
#6550000
1"
1)
b1010 6
#6560000
0"
0)
#6570000
1"
1%
1(
1)
1.
1/
12
b0 6
b0 8
19
0:
b0 <
#6580000
0"
0)
#6590000
1"
1)
b1 6
#6600000
0"
0)
#6610000
1"
1)
b10 6
#6620000
0"
0)
#6630000
1"
1)
b11 6
#6640000
0"
0)
#6650000
1"
1)
b100 6
#6660000
0"
0)
#6670000
1"
1)
b101 6
#6680000
0"
0)
#6690000
1"
1)
b110 6
#6700000
0"
0)
#6710000
1"
1)
b111 6
#6720000
0"
0)
#6730000
1"
1)
b1000 6
#6740000
0"
0)
#6750000
1"
1)
b1001 6
#6760000
0"
0)
#6770000
1"
1)
b1010 6
#6780000
0"
0)
#6790000
1"
0%
1)
0/
02
b0 6
#6800000
0"
0)
#6810000
1"
1)
b1 6
#6820000
0"
0)
#6830000
1"
1)
b10 6
#6840000
0"
0)
#6850000
1"
1)
b11 6
#6860000
0"
0)
#6870000
1"
1)
b100 6
#6880000
0"
0)
#6890000
1"
1)
b101 6
#6900000
0"
0)
#6910000
1"
1)
b110 6
#6920000
0"
0)
#6930000
1"
1)
b111 6
#6940000
0"
0)
#6950000
1"
1)
b1000 6
#6960000
0"
0)
#6970000
1"
1)
b1001 6
#6980000
0"
0)
#6990000
1"
1)
b1010 6
#7000000
0"
0)
#7010000
1"
1$
1%
b1000010101 &
0(
1)
1+
b1000010101 ,
0.
1/
12
b0 6
09
#7020000
0"
0)
#7030000
1"
1)
b1 6
#7040000
0"
0)
#7050000
1"
1)
b10 6
#7060000
0"
0)
#7070000
1"
1)
b11 6
#7080000
0"
0)
#7090000
1"
1)
b100 6
#7100000
0"
0)
#7110000
1"
1)
b101 6
#7120000
0"
0)
#7130000
1"
1)
b110 6
#7140000
0"
0)
#7150000
1"
1)
b111 6
#7160000
0"
0)
#7170000
1"
1)
b1000 6
#7180000
0"
0)
#7190000
1"
1)
b1001 6
#7200000
0"
0)
#7210000
1"
1)
b1010 6
#7220000
0"
0)
#7230000
1"
0%
1)
0/
02
b0 6
#7240000
0"
0)
#7250000
1"
1)
b1 6
#7260000
0"
0)
#7270000
1"
1)
b10 6
#7280000
0"
0)
#7290000
1"
1)
b11 6
#7300000
0"
0)
#7310000
1"
1)
b100 6
#7320000
0"
0)
#7330000
1"
1)
b101 6
#7340000
0"
0)
#7350000
1"
1)
b110 6
#7360000
0"
0)
#7370000
1"
1)
b111 6
#7380000
0"
0)
#7390000
1"
1)
b1000 6
#7400000
0"
0)
#7410000
1"
1)
b1001 6
#7420000
0"
0)
#7430000
1"
1)
b1010 6
#7440000
0"
0)
#7450000
1"
0$
1%
1)
0+
1/
00
12
03
b10 5
b0 6
b1000010101 8
#7460000
0"
0)
#7470000
1"
1)
b1 6
#7480000
0"
0)
#7490000
1"
1)
b10 6
#7500000
0"
0)
#7510000
1"
1)
b11 6
#7520000
0"
0)
#7530000
1"
1)
b100 6
#7540000
0"
0)
#7550000
1"
1)
b101 6
#7560000
0"
0)
#7570000
1"
1)
b110 6
#7580000
0"
0)
#7590000
1"
1)
b111 6
#7600000
0"
0)
#7610000
1"
1)
b1000 6
#7620000
0"
0)
#7630000
1"
1)
b1001 6
#7640000
0"
0)
#7650000
1"
1)
b1010 6
#7660000
0"
0)
#7670000
1"
0%
1)
0/
02
b0 6
#7680000
0"
0)
#7690000
1"
1)
b1 6
#7700000
0"
0)
#7710000
1"
1)
b10 6
#7720000
0"
0)
#7730000
1"
1)
b11 6
#7740000
0"
0)
#7750000
1"
1)
b100 6
#7760000
0"
0)
#7770000
1"
1)
b101 6
#7780000
0"
0)
#7790000
1"
1)
b110 6
#7800000
0"
0)
#7810000
1"
1)
b111 6
#7820000
0"
0)
#7830000
1"
1)
b1000 6
#7840000
0"
0)
#7850000
1"
1)
b1001 6
#7860000
0"
0)
#7870000
1"
1)
b1010 6
#7880000
0"
0)
#7890000
1"
1%
1)
1/
11
12
14
b0 6
b1 7
1:
#7900000
0"
0)
#7910000
1"
1)
b1 6
#7920000
0"
0)
#7930000
1"
1)
b10 6
#7940000
0"
0)
#7950000
1"
1)
b11 6
#7960000
0"
0)
#7970000
1"
1)
b100 6
#7980000
0"
0)
#7990000
1"
1)
b101 6
#8000000
0"
0)
#8010000
1"
1)
b110 6
#8020000
0"
0)
#8030000
1"
1)
b111 6
#8040000
0"
0)
#8050000
1"
1)
b1000 6
#8060000
0"
0)
#8070000
1"
1)
b1001 6
#8080000
0"
0)
#8090000
1"
1)
b1010 6
#8100000
0"
0)
#8110000
1"
0%
1)
0/
02
b0 6
#8120000
0"
0)
#8130000
1"
1)
b1 6
#8140000
0"
0)
#8150000
1"
1)
b10 6
#8160000
0"
0)
#8170000
1"
1)
b11 6
#8180000
0"
0)
#8190000
1"
1)
b100 6
#8200000
0"
0)
#8210000
1"
1)
b101 6
#8220000
0"
0)
#8230000
1"
1)
b110 6
#8240000
0"
0)
#8250000
1"
1)
b111 6
#8260000
0"
0)
#8270000
1"
1)
b1000 6
#8280000
0"
0)
#8290000
1"
1)
b1001 6
#8300000
0"
0)
#8310000
1"
1)
b1010 6
#8320000
0"
0)
#8330000
1"
1%
b100110000010 '
1)
b100110000010 -
1/
01
12
04
b0 6
b10 7
b100110000010 ;
b1 <
#8340000
0"
0)
#8350000
1"
1)
b1 6
#8360000
0"
0)
#8370000
1"
1)
b10 6
#8380000
0"
0)
#8390000
1"
1)
b11 6
#8400000
0"
0)
#8410000
1"
1)
b100 6
#8420000
0"
0)
#8430000
1"
1)
b101 6
#8440000
0"
0)
#8450000
1"
1)
b110 6
#8460000
0"
0)
#8470000
1"
1)
b111 6
#8480000
0"
0)
#8490000
1"
1)
b1000 6
#8500000
0"
0)
#8510000
1"
1)
b1001 6
#8520000
0"
0)
#8530000
1"
1)
b1010 6
#8540000
0"
0)
#8550000
1"
0%
1)
0/
02
b0 6
#8560000
0"
0)
#8570000
1"
1)
b1 6
#8580000
0"
0)
#8590000
1"
1)
b10 6
#8600000
0"
0)
#8610000
1"
1)
b11 6
#8620000
0"
0)
#8630000
1"
1)
b100 6
#8640000
0"
0)
#8650000
1"
1)
b101 6
#8660000
0"
0)
#8670000
1"
1)
b110 6
#8680000
0"
0)
#8690000
1"
1)
b111 6
#8700000
0"
0)
#8710000
1"
1)
b1000 6
#8720000
0"
0)
#8730000
1"
1)
b1001 6
#8740000
0"
0)
#8750000
1"
1)
b1010 6
#8760000
0"
0)
#8770000
1"
1%
b10011000001 '
1)
b10011000001 -
1/
11
12
14
b0 6
b11 7
b10011000001 ;
b10 <
#8780000
0"
0)
#8790000
1"
1)
b1 6
#8800000
0"
0)
#8810000
1"
1)
b10 6
#8820000
0"
0)
#8830000
1"
1)
b11 6
#8840000
0"
0)
#8850000
1"
1)
b100 6
#8860000
0"
0)
#8870000
1"
1)
b101 6
#8880000
0"
0)
#8890000
1"
1)
b110 6
#8900000
0"
0)
#8910000
1"
1)
b111 6
#8920000
0"
0)
#8930000
1"
1)
b1000 6
#8940000
0"
0)
#8950000
1"
1)
b1001 6
#8960000
0"
0)
#8970000
1"
1)
b1010 6
#8980000
0"
0)
#8990000
1"
0%
1)
0/
02
b0 6
#9000000
0"
0)
#9010000
1"
1)
b1 6
#9020000
0"
0)
#9030000
1"
1)
b10 6
#9040000
0"
0)
#9050000
1"
1)
b11 6
#9060000
0"
0)
#9070000
1"
1)
b100 6
#9080000
0"
0)
#9090000
1"
1)
b101 6
#9100000
0"
0)
#9110000
1"
1)
b110 6
#9120000
0"
0)
#9130000
1"
1)
b111 6
#9140000
0"
0)
#9150000
1"
1)
b1000 6
#9160000
0"
0)
#9170000
1"
1)
b1001 6
#9180000
0"
0)
#9190000
1"
1)
b1010 6
#9200000
0"
0)
#9210000
1"
1%
b101001100000 '
1)
b101001100000 -
1/
01
12
04
b0 6
b100 7
b101001100000 ;
b11 <
#9220000
0"
0)
#9230000
1"
1)
b1 6
#9240000
0"
0)
#9250000
1"
1)
b10 6
#9260000
0"
0)
#9270000
1"
1)
b11 6
#9280000
0"
0)
#9290000
1"
1)
b100 6
#9300000
0"
0)
#9310000
1"
1)
b101 6
#9320000
0"
0)
#9330000
1"
1)
b110 6
#9340000
0"
0)
#9350000
1"
1)
b111 6
#9360000
0"
0)
#9370000
1"
1)
b1000 6
#9380000
0"
0)
#9390000
1"
1)
b1001 6
#9400000
0"
0)
#9410000
1"
1)
b1010 6
#9420000
0"
0)
#9430000
1"
0%
1)
0/
02
b0 6
#9440000
0"
0)
#9450000
1"
1)
b1 6
#9460000
0"
0)
#9470000
1"
1)
b10 6
#9480000
0"
0)
#9490000
1"
1)
b11 6
#9500000
0"
0)
#9510000
1"
1)
b100 6
#9520000
0"
0)
#9530000
1"
1)
b101 6
#9540000
0"
0)
#9550000
1"
1)
b110 6
#9560000
0"
0)
#9570000
1"
1)
b111 6
#9580000
0"
0)
#9590000
1"
1)
b1000 6
#9600000
0"
0)
#9610000
1"
1)
b1001 6
#9620000
0"
0)
#9630000
1"
1)
b1010 6
#9640000
0"
0)
#9650000
1"
1%
b10100110000 '
1)
b10100110000 -
1/
11
12
14
b0 6
b101 7
b10100110000 ;
b100 <
#9660000
0"
0)
#9670000
1"
1)
b1 6
#9680000
0"
0)
#9690000
1"
1)
b10 6
#9700000
0"
0)
