VerificationOfDflipflop/VerificationOfDflipflop.sim/sim_1/behav/xsim/dump.vcd
$date
   Sun Oct 22 08:07:15 2023
$end
$version
  2023.1
$end
$timescale
  1ps
$end
$scope module tb $end
$var reg 32 ! env $end
$scope module vif $end
$var reg 1 " clk $end
$var reg 1 # rst $end
$var reg 1 $ din $end
$var reg 1 % dout $end
$upscope $end
$scope module dut $end
$scope module vif $end
$var reg 1 " clk $end
$var reg 1 # rst $end
$var reg 1 $ din $end
$var reg 1 % dout $end
$upscope $end
$upscope $end
$upscope $end
$enddefinitions $end
#0
$dumpvars
b100001101110010000000000111000 !
0"
1#
x$
x%
$end
#10000
1"
0%
#20000
0"
#30000
1"
#40000
0"
#50000
1"
#60000
0"
#70000
1"
#80000
0"
#90000
1"
0#
#100000
0"
#110000
1"
1$
x%
#120000
0"
#130000
1"
0$
1%
#140000
0"
#150000
1"
0%
#160000
0"
#170000
1"
#180000
0"
#190000
1"
#200000
0"
#210000
1"
#220000
0"
#230000
1"
#240000
0"
#250000
1"
#260000
0"
#270000
1"
1$
#280000
0"
#290000
1"
0$
1%
#300000
0"
#310000
1"
1$
0%
#320000
0"
#330000
1"
0$
1%
#340000
0"
#350000
1"
1$
0%
#360000
0"
#370000
1"
0$
1%
#380000
0"
#390000
1"
0%
#400000
0"
#410000
1"
#420000
0"
#430000
1"
1$
#440000
0"
#450000
1"
0$
1%
#460000
0"
#470000
1"
1$
0%
#480000
0"
#490000
1"
0$
1%
#500000
0"
#510000
1"
0%
#520000
0"
#530000
1"
#540000
0"
#550000
1"
#560000
0"
#570000
1"
#580000
0"
#590000
1"
#600000
0"
#610000
1"
#620000
0"
#630000
1"
1$
#640000
0"
#650000
1"
0$
1%
#660000
0"
#670000
1"
0%
#680000
0"
#690000
1"
#700000
0"
#710000
1"
#720000
0"
#730000
1"
#740000
0"
#750000
1"
1$
#760000
0"
#770000
1"
0$
1%
#780000
0"
#790000
1"
0%
#800000
0"
#810000
1"
#820000
0"
#830000
1"
#840000
0"
#850000
1"
#860000
0"
#870000
1"
1$
#880000
0"
#890000
1"
0$
1%
#900000
0"
#910000
1"
0%
#920000
0"
#930000
1"
#940000
0"
#950000
1"
1$
#960000
0"
#970000
1"
0$
1%
#980000
0"
#990000
1"
1$
0%
#1000000
0"
#1010000
1"
0$
1%
#1020000
0"
#1030000
1"
1$
0%
#1040000
0"
#1050000
1"
0$
1%
#1060000
0"
#1070000
1"
1$
0%
#1080000
0"
#1090000
1"
0$
1%
#1100000
0"
#1110000
1"
0%
#1120000
0"
#1130000
1"
#1140000
0"
#1150000
1"
#1160000
0"
#1170000
1"
#1180000
0"
#1190000
1"
1$
#1200000
0"
#1210000
1"
0$
1%
#1220000
0"
#1230000
1"
1$
0%
#1240000
0"
#1250000
1"
0$
1%
#1260000
0"
#1270000
1"
0%
